[{
    "relation": ["delegate_permission/common.handle_all_urls"],
    "target" : { "namespace": "android_app", "package_name": "ro.surprise.me",
                 "sha256_cert_fingerprints": ["70:4D:A4:30:CC:8A:09:18:6D:5A:52:86:7F:D6:76:BF:BD:33:D1:11:DA:20:FE:A3:E5:82:32:C5:32:50:8B:8F"] }
}]
